…
df_examples <- bind_rows(exs_min, exs_max, exs_median, exs_mean, exs_cases)

df_examples %<>% 
  mutate(GROUP = factor(GROUP, c('min', 'median', 'mean', 'max', 'case'))) %>%
  arrange(GROUP)

df_examples
```

    ## # A tibble: 30 x 3
    ##    LEMMA                USES_TOT GROUP 
    ##    <chr>                   <dbl> <fct> 
    ##  1 bediquette                164 min   
    ##  2 rapugee                   182 min   
    ##  3 halfalogue                245 min   
    ##  4 begpacker                 283 min   
    ##  5 dogfishing                399 min   
    ##  6 microflat                 426 min   
    ##  7 helicopter parenting    26393 median
    ##  8 monthiversary           23607 median
    ##  9 newsjacking             20930 median
    ## 10 deepfake                20101 median
    ## # … with 20 more rows
…
